3
"0|0,0|1",10
"0|4,1|4",13
"0|7,0|8",11
"1|0,1|1",14
"0|2,1|2",9
"0|3,1|3",11
"0|5,1|5",10
"0|6,1|6",6
"1|7,1|8",6
"2|0,2|1",8
"2|2,2|3",6
"2|5,2|6",7
"2|7,2|8",16
"3|0,3|1",11
"3|3,4|3",11
"2|4,3|4",9
"3|5,4|5",15
"3|7,3|8",7
"3|2,4|2",12
"4|4,5|4,6|4",18
"3|6,4|6",12
"4|0,5|0,6|0",10
"4|1,5|1",13
"5|2,5|3,6|2",11
"5|5,5|6,6|6",12
"4|7,5|7",10
"4|8,5|8,6|8",13
"6|1,7|0,7|1",9
"6|3,7|2,7|3",21
"6|5,7|5,7|6",22
"6|7,7|7,7|8",15
"8|0,8|1",15
"8|2,8|3",9
"7|4,8|4",5
"8|5,8|6",6
"8|7,8|8",12
