2
"0|0,0|1",8
"0|2,0|3",8
"0|5,0|6,1|5",16
"1|1,1|2,1|3",18
"0|4,1|4",13
"0|7,1|6,1|7",13
"0|8,1|8",12
"1|0,2|0",3
"2|1,2|2",16
"2|6,3|6,4|6",13
"2|7,3|7",6
"3|0,3|1,4|0",23
"2|3,3|2,3|3",24
"2|4,3|4",8
"2|5,3|5",5
"2|8,3|8",5
"4|1,4|2",8
"4|3,4|4,4|5",11
"4|7,4|8",15
"5|0,6|0",7
"5|5,5|6",11
"5|7,5|8,6|8",17
"5|1,6|1",9
"5|2,6|2",7
"5|3,6|3",6
"5|4,6|4",13
"6|6,6|7",16
"7|0,7|1",8
"7|3,7|4",15
"6|5,7|5,8|5",18
"7|6,7|7",7
"8|0,8|1",16
"7|2,8|2",5
"8|3,8|4",5
"8|6,8|7",7
"7|8,8|8",13
