5
"0|0,0|1,0|2,0|3,0|4,0|5,0|6,0|7,0|8",45
"1|0,1|1",8
"1|2,1|3",12
"1|5,1|6",10
"1|7,1|8",14
"2|2,2|3",10
"1|4,2|4",3
"2|5,2|6",13
"2|0,2|1,3|0",21
"3|1,3|2",9
"3|6,3|7",13
"2|7,2|8,3|8",6
"3|3,3|4,3|5,4|2,4|3,4|4,4|5,4|6",41
"4|0,4|1,5|0",14
"5|3,5|4,5|5",18
"4|7,4|8,5|8",14
"5|1,6|0,6|1",18
"5|2,6|2",9
"5|6,6|6",4
"5|7,6|7,6|8",19
"6|3,7|2,7|3",10
"6|4,7|4",12
"6|5,7|5,7|6",15
"7|0,8|0",10
"7|1,8|1",9
"8|2,8|3,8|4,8|5,8|6",26
"7|7,8|7",11
"7|8,8|8",11
