4
"0|4,0|5",13
"0|6,0|7,0|8,1|8",13
"0|0,0|1,0|2,0|3,1|0",29
"1|2,1|3",12
"1|4,1|5",7
"1|6,1|7",15
"1|1,2|0,2|1",13
"2|4,2|5,2|6,3|4",16
"3|0,3|1",3
"2|3,3|3,4|3,5|3,6|3",28
"3|5,3|6",12
"2|7,2|8,3|7,3|8",25
"4|0,4|1",15
"4|4,4|5",8
"4|6,4|7,4|8",16
"5|0,5|1",10
"2|2,3|2,4|2,5|2,6|2",25
"5|5,5|6",9
"5|7,5|8,6|7,6|8",17
"6|0,6|1,7|1",14
"5|4,6|4,6|5,6|6",23
"7|0,8|0,8|1,8|2,8|3",26
"7|2,7|3",5
"7|4,7|5",9
"7|6,7|7",9
"8|4,8|5",17
"7|8,8|6,8|7,8|8",16
