2
"0|0,0|1,0|2",18
"0|3,0|4",11
"0|5,0|6",10
"0|7,0|8,1|7",9
"1|0,1|1",8
"1|2,1|3",11
"1|4,1|5",9
"1|8,2|8",11
"2|0,2|1",10
"2|4,2|5,3|4",19
"1|6,2|6",17
"3|0,3|1",4
"2|2,3|2",14
"2|3,3|3",10
"3|5,3|6",9
"2|7,3|7",6
"4|0,5|0",13
"4|1,4|2",8
"4|3,4|4,4|5",14
"4|6,4|7",11
"3|8,4|8",11
"5|1,6|1",13
"5|2,5|3",10
"5|5,6|5",11
"5|6,6|6",5
"5|7,5|8",15
"6|2,7|2",14
"5|4,6|3,6|4",10
"6|7,6|8",8
"6|0,7|0",3
"7|3,7|4",17
"7|5,7|6",9
"7|7,7|8",5
"7|1,8|0,8|1",16
"8|2,8|3",4
"8|4,8|5",9
"8|6,8|7,8|8",23
