2
"0|6,0|7,0|8",7
"0|0,1|0",15
"0|1,1|1",5
"0|2,1|2",11
"0|3,1|3,2|3",21
"0|4,0|5,1|4",15
"1|5,1|6",13
"1|7,1|8",10
"2|0,2|1",13
"2|4,2|5,2|6",13
"2|7,2|8,3|8",20
"2|2,3|1,3|2",13
"3|6,4|6",12
"3|7,4|7",7
"3|0,4|0",4
"3|3,4|3,5|3",12
"3|5,4|5,5|5",9
"4|8,5|8",12
"4|1,5|1",14
"4|2,5|2",9
"3|4,4|4,5|4",24
"5|6,5|7,6|6",9
"5|0,6|0,6|1",15
"6|2,6|3,6|4",22
"6|7,6|8",4
"7|0,7|1",5
"7|2,7|3",11
"7|4,8|3,8|4",7
"6|5,7|5,8|5",22
"7|6,8|6",8
"7|7,8|7",17
"7|8,8|8",12
"8|0,8|1,8|2",14
