3
"0|0,0|1,0|2",11
"0|3,0|4,0|5",21
"0|6,0|7",12
"1|0,1|1,1|2",17
"1|3,1|4,2|3",13
"1|5,1|6",10
"0|8,1|8",7
"2|0,2|1",9
"2|4,2|5,3|5",8
"1|7,2|7,2|8",17
"3|0,3|1",7
"2|2,3|2",14
"2|6,3|6,3|7",17
"3|8,4|8",13
"4|1,4|2",3
"3|3,4|3",10
"3|4,4|4,5|4",19
"4|5,5|5",9
"4|6,4|7",11
"4|0,5|0",12
"5|1,5|2,6|2",22
"5|6,6|6",4
"5|7,5|8",8
"6|0,6|1,7|1",23
"5|3,6|3,6|4",14
"6|7,6|8",6
"7|0,8|0",3
"7|2,7|3",12
"6|5,7|4,7|5",13
"7|6,7|7,7|8",17
"8|1,8|2",7
"8|3,8|4,8|5",15
"8|6,8|7,8|8",21
