7
"0|1,0|2",8
"0|0,1|0,1|1,1|2",23
"0|3,1|3",11
"0|5,1|5",11
"0|6,1|6",6
"0|7,1|7",9
"2|0,2|1",6
"2|2,2|3",9
"0|4,1|4,2|4,2|5",22
"2|6,3|3,3|4,3|5,3|6",31
"2|7,3|7",8
"3|0,4|0,5|0",17
"3|1,4|1,5|1",12
"3|2,4|2,5|2",16
"4|3,4|4,4|5",8
"4|6,4|7",12
"5|3,5|4,5|5,5|6,6|6",33
"5|7,6|7",9
"6|0,6|1",15
"6|2,6|3",7
"6|4,6|5,7|4,8|4",17
"7|0,7|1,7|2,8|0",17
"7|3,8|3",13
"7|5,8|5",12
"7|6,8|6",4
"7|7,8|7",15
"0|8,1|8,2|8,3|8,4|8,5|8,6|8,7|8,8|8",45
"8|1,8|2",9
