6
"0|2,0|3",12
"0|4,0|5",6
"0|6,0|7,0|8,1|7,1|8,2|8",24
"0|0,1|0",9
"0|1,1|1,1|2,2|2",19
"1|3,1|4",13
"1|5,1|6",17
"2|7,3|7",11
"2|0,3|0",9
"2|1,3|1,3|2",15
"2|3,3|3",10
"2|4,2|5,2|6,3|6,4|6",25
"3|8,4|8",15
"4|0,4|1,5|1,6|1",18
"4|2,4|3",11
"3|4,3|5,4|4,4|5",11
"5|4,6|4",15
"5|5,5|6",7
"4|7,5|7",14
"5|8,6|8",12
"5|0,6|0",14
"5|2,5|3,6|2,6|3",20
"7|2,7|3,7|4,8|4",18
"6|5,7|5,7|6",16
"6|6,6|7,7|7,7|8",18
"7|0,7|1,8|0,8|1",16
"8|2,8|3",15
"8|5,8|6",12
"8|7,8|8",3
