3
"5|3,6|3",3
"1|0,2|0,3|0,4|0,5|0,6|0,7|0",37
"7|4,8|4,8|5,8|6",19
"1|5,2|5,3|5",12
"0|0,0|1,1|1",15
"5|4,6|4",15
"1|8,2|8,3|8",24
"6|6,6|7,7|6,7|7,8|7,8|8",28
"4|1,4|2",16
"0|2,0|3",11
"5|5,6|5,7|5",22
"2|1,3|1",13
"7|1,8|0,8|1",12
"4|3,4|4,4|5",13
"1|2,1|3",8
"3|6,3|7,4|6,4|7,4|8,5|6,5|7",33
"2|2,3|2",9
"8|2,8|3",12
"5|1,6|1",4
"0|4,0|5,0|6,1|4",22
"5|8,6|8,7|8",14
"2|3,3|3",13
"5|2,6|2",10
"0|7,0|8,1|6,1|7,2|6,2|7",21
"7|2,7|3",12
"2|4,3|4",7
