6
"6|3,6|4,6|5",10
"0|5,1|5,2|5",17
"7|2,8|2",7
"3|1,4|1",11
"0|0,0|1,1|0",10
"5|6,6|6",11
"0|6,1|6",13
"7|6,8|6",3
"3|7,4|7",8
"0|7,0|8,1|8",12
"5|7,6|7,7|7",19
"1|1,2|0,2|1,2|2,3|0",29
"4|3,4|5,5|3,5|4,5|5",20
"0|2,1|2",11
"4|0,5|0,6|0,7|0,8|0,8|1",32
"1|7,2|6,2|7,2|8,3|8",29
"5|1,6|1,7|1",16
"0|3,1|3,2|3",11
"7|3,7|4,7|5,8|3,8|4,8|5",35
"3|2,3|3,4|2",11
"5|2,6|2",16
"0|4,1|4,2|4,3|4,4|4",32
"4|8,5|8,6|8,7|8,8|7,8|8",29
"3|5,3|6,4|6",13
