4
"8|2,8|3",10
"4|7,4|8",8
"1|7,1|8",12
"6|0,7|0,8|0",10
"3|3,3|4,3|5,4|3,5|3",27
"0|0,0|1,0|2,1|0,1|1,2|0",29
"7|4,8|4",12
"4|0,4|1,5|0",21
"1|2,2|1,2|2",16
"7|2,7|3",16
"3|6,4|6",11
"0|4,0|5,1|4",8
"7|7,7|8,8|7,8|8",19
"5|6,5|7,5|8,6|8",24
"2|3,2|4",15
"6|5,7|5,8|5,8|6",21
"2|7,3|7",8
"0|6,0|7,0|8",17
"5|1,6|1",11
"2|5,2|6",7
"6|6,6|7,7|6",12
"2|8,3|8",8
"0|3,1|3",11
"5|2,6|2",3
"3|0,3|1",5
"7|1,8|1",10
"4|4,4|5,5|4,5|5",18
"1|5,1|6",11
"6|3,6|4",11
"3|2,4|2",14
