3
"0|0,0|1,0|2",14
"0|3,0|4",17
"0|5,1|5",5
"0|6,0|7,1|6",15
"0|8,1|8",6
"1|0,2|0",10
"1|1,1|2,2|1",19
"1|3,1|4,2|3",12
"2|4,2|5",11
"1|7,2|7,2|8",21
"2|2,3|2",10
"3|4,3|5,4|4",12
"2|6,3|6",12
"3|7,3|8",5
"3|0,3|1,4|0",16
"4|1,4|2",8
"3|3,4|3",15
"4|5,4|6",4
"4|7,4|8,5|8",20
"5|3,6|2,6|3",7
"5|0,6|0,7|0",17
"5|1,5|2,6|1",13
"5|4,6|4",12
"5|5,6|5",17
"5|6,5|7,6|6",15
"6|7,7|7,8|7",7
"7|5,7|6",9
"6|8,7|8,8|8",18
"7|1,8|0,8|1",15
"7|2,8|2",12
"7|3,8|3",6
"7|4,8|4",11
"8|5,8|6",14
