3
"0|2,0|3,0|4",14
"0|0,0|1,1|0",19
"1|3,1|4,2|4",13
"0|5,1|5",14
"0|6,0|7,1|6",12
"0|8,1|8",13
"2|0,2|1",12
"1|1,1|2,2|2",13
"2|5,2|6",9
"1|7,2|7,2|8",14
"3|0,3|1,3|2",15
"2|3,3|3,3|4",13
"3|5,3|6",6
"3|8,4|8",10
"4|1,4|2,5|1",16
"4|3,4|4,4|5",16
"3|7,4|6,4|7",18
"4|0,5|0",9
"5|2,5|3",11
"5|4,5|5,6|5",17
"5|6,5|7,5|8",12
"6|0,6|1,7|1",9
"6|2,6|3",6
"6|6,7|6,7|7",19
"6|7,6|8",15
"7|0,8|0",11
"7|2,8|1,8|2",23
"7|3,8|3",8
"6|4,7|4,7|5",11
"7|8,8|7,8|8",9
"8|4,8|5,8|6",18
