7
"0|0,0|1,0|2,1|0,2|0",20
"0|3,0|4",16
"0|5,0|6,1|6",9
"1|4,1|5",12
"0|7,1|7",7
"0|8,1|8",11
"1|1,1|2,2|1",18
"1|3,2|2,2|3,3|1,3|2",28
"2|4,2|5",6
"2|6,3|5,3|6",19
"2|7,3|7,4|7,5|7,5|8",26
"2|8,3|8,4|8",20
"3|0,4|0",8
"3|3,3|4,4|3,4|4",16
"4|1,5|1",9
"4|2,5|2",7
"4|5,5|4,5|5",18
"4|6,5|6",9
"5|0,6|0,6|1",24
"5|3,6|2,6|3",12
"6|4,6|5",11
"6|6,6|7,7|6",16
"7|0,7|1",6
"7|2,7|3,7|4,7|5,8|5",25
"6|8,7|7,7|8,8|6,8|7,8|8",29
"8|0,8|1",14
"8|2,8|3,8|4",9
