2
"0|2,0|3",7
"0|4,0|5,0|6",20
"0|7,0|8,1|8",16
"0|0,0|1,1|0",15
"1|3,1|4",13
"1|5,1|6,1|7",12
"1|1,2|0,2|1",22
"1|2,2|2",3
"2|4,2|5,2|6",12
"2|7,2|8,3|7",18
"2|3,3|2,3|3",20
"3|4,3|5",6
"3|0,4|0,5|0",10
"3|1,4|1",9
"4|2,5|2",9
"4|3,4|4,4|5",13
"3|6,4|6",11
"4|7,5|7",16
"3|8,4|8,5|8",8
"5|3,5|4",13
"5|5,5|6,6|5",12
"5|1,6|0,6|1",16
"6|2,6|3,6|4",10
"6|6,7|6",10
"6|7,6|8,7|7",17
"7|1,7|2,7|3",20
"7|4,7|5",14
"7|8,8|7,8|8",12
"7|0,8|0,8|1",9
"8|2,8|3,8|4",24
"8|5,8|6",8
