3
"0|0,0|1,0|2",18
"0|3,0|4,0|5",14
"0|6,0|7,0|8",13
"1|0,1|1,1|2",7
"1|6,1|7,1|8",17
"2|0,2|1",12
"1|3,2|3",8
"1|4,2|4",12
"1|5,2|5",11
"2|7,2|8",6
"2|2,3|2",17
"3|3,3|4,3|5",13
"2|6,3|6",10
"3|0,4|0,5|0",14
"3|1,4|1,5|1",11
"4|2,4|3,5|2",15
"4|5,4|6,5|6",19
"3|7,4|7,5|7",20
"3|8,4|8,5|8",14
"5|3,6|3",11
"5|5,6|5",4
"6|1,6|2,7|1",19
"4|4,5|4,6|4",12
"6|6,6|7,7|7",14
"6|0,7|0,8|0",14
"7|2,7|3,8|3",16
"7|5,7|6,8|5",20
"6|8,7|8,8|8",14
"8|1,8|2",11
"7|4,8|4",7
"8|6,8|7",12
