10
"0|0,0|1,1|0",13
"0|5,0|6",8
"0|7,0|8,1|8",16
"0|2,1|1,1|2,2|0,2|1",27
"0|3,0|4,1|3,1|4,2|4",28
"1|6,1|7",8
"1|5,2|5,2|6",12
"2|7,2|8",12
"3|0,3|1,4|0,4|1,4|2",31
"2|2,2|3,3|2",14
"3|3,3|4,4|3,4|4",19
"3|7,3|8",14
"3|5,3|6,4|5",16
"5|3,5|4,6|3",16
"4|7,4|8,5|7",12
"5|0,6|0",9
"5|1,5|2,6|2",11
"4|6,5|5,5|6,6|4,6|5",27
"5|8,6|8",9
"6|1,7|1",9
"7|4,7|5,8|4",19
"6|6,6|7,7|6",13
"7|7,7|8,8|7,8|8",24
"7|0,8|0,8|1",19
"7|2,8|2",8
"7|3,8|3",4
"8|5,8|6",7
