1
"0|1,0|2,0|3",16
"0|4,0|5",5
"0|0,1|0",15
"1|1,1|2",7
"0|6,0|7,1|6",20
"0|8,1|7,1|8",9
"2|0,2|1",7
"1|3,2|3",13
"1|4,1|5,2|4",21
"2|5,2|6",13
"2|7,2|8",8
"3|0,3|1",9
"2|2,3|2,4|2",7
"3|5,3|6",9
"4|0,5|0",15
"4|1,5|1",12
"3|3,4|3",17
"3|4,4|4,5|4",12
"4|5,5|5",7
"3|7,4|7",12
"3|8,4|8",9
"5|2,5|3",5
"4|6,5|6,6|6",8
"5|7,5|8",17
"6|0,6|1",3
"6|2,6|3",14
"6|4,7|3,7|4",18
"6|5,7|5",7
"6|7,6|8",12
"7|0,7|1,8|0",15
"7|2,8|1,8|2",18
"7|6,7|7",7
"7|8,8|8",16
"8|3,8|4",6
"8|5,8|6,8|7",16
