2
"0|1,0|2",17
"0|0,1|0,2|0",10
"1|1,1|2",12
"0|3,1|3,2|3",16
"0|4,1|4,2|4",11
"0|5,1|5",10
"0|6,0|7,1|6",15
"0|8,1|7,1|8",15
"2|1,2|2",6
"2|5,2|6,3|5",17
"2|7,2|8,3|8",9
"3|3,4|3",13
"3|6,3|7,4|7",9
"3|0,3|1,4|0",18
"3|2,4|2",8
"3|4,4|4,5|4",22
"4|6,5|6",14
"4|8,5|7,5|8",21
"4|1,5|1,5|2",17
"4|5,5|5",4
"5|0,6|0,6|1",8
"5|3,6|2,6|3",15
"6|6,6|7",8
"7|0,7|1,8|0",18
"7|2,8|1,8|2",13
"7|3,8|3",9
"6|4,7|4,8|4",12
"6|5,7|5,8|5",21
"7|6,7|7",11
"6|8,7|8,8|8",16
"8|6,8|7",10
