6
"0|7,0|8,1|7",9
"0|0,0|1,0|2,0|3,0|4,0|5,0|6,1|0",44
"1|1,1|2",3
"1|4,1|5,1|6,2|4,2|6,3|4",24
"1|3,2|2,2|3,3|2",29
"1|8,2|7,2|8",20
"2|0,2|1,3|0,3|1",21
"2|5,3|5",5
"4|0,4|1",12
"3|3,4|2,4|3,4|4,5|3",29
"4|5,4|6",10
"5|0,5|1,6|0,6|1",16
"5|5,6|5",9
"3|6,3|7,3|8,4|7,4|8,5|6,5|7,5|8",36
"5|2,6|2,6|3,7|3",18
"6|7,6|8,7|8",15
"7|0,8|0,8|1,8|2,8|3,8|4,8|5,8|6",37
"7|1,7|2",14
"5|4,6|4,6|6,7|4,7|5,7|6",34
"7|7,8|7,8|8",20
