3
"0|2,0|3,1|2",13
"0|4,0|5",14
"0|6,0|7,0|8,1|7,1|8,2|8",38
"0|0,0|1,1|0",11
"1|3,1|4",5
"1|1,2|1,3|1",21
"2|3,2|4",14
"1|5,2|5",8
"1|6,2|6,2|7,3|6,3|7",21
"2|0,3|0",5
"2|2,3|2,3|3",14
"3|4,3|5",7
"4|0,4|1,4|2,4|3",24
"4|6,4|7",9
"3|8,4|8,5|8,6|8,7|8,8|8",31
"5|0,5|1,5|2",21
"4|4,5|4,6|4",11
"4|5,5|5,5|6",12
"6|1,6|2",8
"5|3,6|3",14
"6|5,6|6",9
"5|7,6|7",5
"6|0,7|0,8|0",17
"7|4,7|5,7|6,8|6",30
"7|1,7|2,8|1,8|2",20
"7|3,8|3",3
"8|4,8|5",8
"7|7,8|7",12
