3
"0|0,0|1,1|0",14
"0|3,0|4",11
"0|5,0|6,0|7",16
"0|2,1|1,1|2",22
"1|3,1|4,1|5",10
"0|8,1|8,2|8",19
"2|1,2|2",7
"2|3,2|4",11
"1|6,2|6",5
"1|7,2|7",13
"3|1,3|2",9
"2|5,3|5,4|5",17
"3|7,3|8,4|7",12
"2|0,3|0,4|0",7
"4|1,4|2",14
"3|3,4|3",9
"3|4,4|4,5|4",21
"3|6,4|6",14
"4|8,5|8",6
"5|0,5|1",14
"5|5,6|5",6
"6|0,6|1,7|1",9
"5|2,6|2,7|2",19
"5|3,6|3",4
"5|6,5|7,6|6",21
"6|7,6|8,7|8",11
"6|4,7|3,7|4",22
"7|6,7|7,8|6",12
"7|0,8|0",13
"8|1,8|2",7
"8|3,8|4",3
"7|5,8|5",13
"8|7,8|8",14
