3
"0|2,0|3,1|3",12
"0|7,0|8",13
"0|0,1|0",11
"0|1,1|1,2|1",11
"0|4,1|4",12
"0|5,1|5,2|5,2|6,3|5,3|6",23
"0|6,1|6",15
"1|2,2|2",16
"2|3,2|4",14
"1|7,1|8,2|7,2|8",14
"3|1,3|2",11
"3|7,4|7,5|7",19
"4|2,4|3",4
"4|5,4|6",13
"3|8,4|8,5|8",14
"2|0,3|0,4|0,4|1,5|0,6|0",25
"5|1,5|2",14
"3|3,3|4,4|4,5|3,5|4",26
"6|2,7|2",6
"6|3,6|4",16
"6|7,6|8,7|7,7|8",21
"7|0,8|0",15
"6|1,7|1,8|1",16
"7|4,8|4",7
"5|5,5|6,6|5,6|6,7|5,8|5",25
"7|6,8|6",14
"7|3,8|2,8|3",9
"8|7,8|8",9
