1
"0|0,0|1",10
"0|2,0|3,1|3",15
"0|4,0|5",10
"0|6,0|7,1|7",21
"1|4,1|5,1|6",7
"0|8,1|8",8
"1|0,2|0,3|0",12
"1|1,1|2,2|1",23
"2|2,2|3,2|4",17
"2|5,2|6",10
"2|7,2|8,3|8",17
"3|1,4|0,4|1",15
"3|2,4|2",16
"3|3,3|4,4|3",10
"4|4,5|4,5|5",21
"3|5,4|5",5
"3|6,4|6",10
"3|7,4|7",4
"5|2,5|3",12
"5|6,5|7",12
"4|8,5|8,6|8",14
"5|0,6|0",11
"5|1,6|1",3
"6|3,6|4,6|5",9
"6|6,6|7",17
"6|2,7|1,7|2",14
"7|6,7|7",8
"7|0,8|0,8|1",21
"8|2,8|3",9
"7|3,7|4,8|4",15
"7|5,8|5",13
"8|6,8|7",8
"7|8,8|8",8
