5
"0|0,0|1,0|2,0|3",24
"0|4,0|5,0|6,1|5",13
"1|1,1|2,1|3,1|4,2|4",27
"0|7,0|8,1|7",14
"1|0,2|0",5
"2|1,2|2,2|3",20
"1|6,2|5,2|6,2|7",25
"1|8,2|8",7
"3|2,3|3",5
"3|6,3|7",5
"3|0,4|0",13
"3|1,4|1",17
"3|4,4|2,4|3,4|4,5|4,5|5,6|4,7|4",42
"3|5,4|5",14
"3|8,4|8",12
"5|2,5|3",7
"4|6,5|6",10
"4|7,5|7,5|8,6|8,7|8",28
"5|0,6|0",8
"5|1,6|1",7
"6|2,6|3",13
"7|0,7|1",11
"7|2,7|3,8|2,8|3",18
"6|5,7|5",10
"6|6,7|6",10
"6|7,7|7",8
"8|0,8|1",12
"8|4,8|5",3
"8|6,8|7,8|8",17
