4
"6|0,6|1,6|2,6|3,7|0",21
"1|2,2|2,2|3",18
"7|7,7|8",13
"3|8,4|8",11
"0|0,0|1,0|2",17
"6|5,6|6,6|7",17
"1|5,2|4,2|5,2|6",25
"8|5,8|6",14
"4|0,5|0,5|1",13
"0|4,0|5,0|6,1|4,1|6",18
"5|8,6|8",9
"3|1,3|2,4|1",18
"8|7,8|8",5
"4|2,5|2",6
"0|3,1|3",15
"7|1,7|2,8|0,8|1",27
"3|3,3|4,3|5,3|6",16
"5|4,5|5",15
"1|0,2|0,3|0",16
"6|4,7|3,7|4,8|2,8|3,8|4",23
"0|7,0|8,1|7,1|8,2|7,2|8,3|7",33
"4|6,4|7,5|6,5|7",18
"1|1,2|1",8
"7|5,7|6",10
"4|3,4|4,4|5,5|3",19
