3
"0|0,0|1,0|2,0|3",19
"0|4,0|5",6
"0|6,0|7,0|8",20
"1|3,1|4,1|5,1|6,2|3,3|3",28
"1|0,2|0",5
"1|1,2|1",14
"1|2,2|2",15
"1|7,1|8,2|7",14
"3|0,3|1,4|0,4|1,5|0,5|1",31
"3|2,4|2,5|2",14
"2|4,3|4",11
"2|5,3|5",13
"2|6,3|6",7
"4|3,4|4",13
"4|5,4|6",6
"3|7,4|7,5|7",6
"5|4,6|4",7
"5|5,6|5",10
"5|6,6|6",14
"2|8,3|8,4|8,5|8,6|8",35
"6|0,7|0",17
"6|1,7|1",7
"6|2,7|2",8
"6|7,7|7,7|8",16
"5|3,6|3,7|3,7|4,7|5,7|6",24
"8|0,8|1,8|2,8|3",19
"8|4,8|5",11
"8|6,8|7,8|8",15
