9
"0|0,0|1,1|0",11
"0|5,0|6,0|7,1|7",14
"1|1,1|2,2|1",21
"0|2,0|3,0|4,1|3,1|4",27
"1|5,1|6,2|6",18
"0|8,1|8",12
"2|2,2|3,3|2",12
"2|4,2|5",13
"2|7,3|7",12
"2|8,3|8",12
"2|0,3|0,3|1,4|0,4|1",24
"4|2,5|2",3
"3|3,3|4,3|5,4|3,5|3",23
"3|6,4|6,4|7,4|8",22
"4|4,4|5,5|4,5|5",22
"5|7,5|8",10
"5|0,6|0,7|0,7|1",21
"5|1,6|1,6|2",14
"6|3,6|4,7|4,8|4",19
"5|6,6|5,6|6,6|7,7|6,7|7",26
"7|2,7|3",13
"8|0,8|1",9
"8|2,8|3",12
"7|5,8|5",6
"6|8,7|8,8|6,8|7,8|8",29
