4
"8|3,8|4",16
"4|0,5|0",12
"1|4,1|5",11
"5|8,6|6,6|7,6|8",21
"2|4,2|5,2|6,3|6,4|6",24
"0|0,0|1",5
"7|6,8|5,8|6",16
"5|2,5|3,6|2,6|3",19
"0|6,1|6",3
"6|0,7|0,7|1,8|0,8|1,8|2",25
"3|7,4|7",4
"0|4,0|5",16
"5|6,5|7",11
"1|3,2|3",12
"7|2,7|3",6
"3|8,4|8",11
"0|7,0|8,1|7,1|8",25
"5|1,6|1",8
"2|7,2|8",11
"7|7,8|7",9
"4|1,4|2,4|3",14
"1|0,1|1",9
"5|4,6|4,7|4",13
"2|0,2|1,3|0",17
"7|8,8|8",6
"3|3,3|4,3|5,4|4,4|5,5|5",30
"0|2,0|3,1|2,2|2",22
"6|5,7|5",13
"3|1,3|2",16
