2
"0|0,0|1,1|1",11
"0|3,0|4",10
"0|2,1|2,2|2",19
"1|3,1|4,2|3",16
"0|5,1|5",14
"0|6,0|7,1|6",13
"1|7,2|7,3|7",19
"0|8,1|8",11
"1|0,2|0,2|1",15
"2|4,2|5,2|6",6
"3|0,3|1,4|0",22
"3|2,3|3",6
"3|4,3|5,3|6",13
"2|8,3|8",10
"4|1,4|2",11
"4|3,4|4,4|5",18
"4|6,4|7",3
"5|0,6|0",12
"5|2,5|3,5|4",11
"5|5,5|6",14
"4|8,5|7,5|8",19
"6|2,6|3,6|4",21
"6|7,6|8,7|8",8
"7|0,8|0",9
"5|1,6|1,7|1",10
"7|2,8|1,8|2",17
"7|3,8|3",12
"6|5,7|4,7|5",11
"6|6,7|6,8|6",17
"8|4,8|5",7
"7|7,8|7,8|8",20
