6
"0|2,0|3",10
"0|4,0|5",10
"0|6,0|7,0|8,1|8,2|8",19
"0|0,0|1,1|0",15
"1|2,1|3",5
"1|4,1|5,1|6,1|7,2|5",30
"1|1,2|1",11
"2|3,2|4",15
"2|6,2|7",10
"2|0,3|0,4|0",11
"2|2,3|2,4|2",16
"3|3,3|4",11
"3|5,3|6",13
"3|7,3|8",7
"3|1,4|1",11
"4|3,4|4,4|5",13
"4|7,5|7",5
"5|0,5|1",11
"5|2,5|3",11
"5|4,5|5",8
"4|6,5|6,6|6",14
"4|8,5|8,6|8",17
"6|1,6|2",7
"6|4,6|5",14
"6|7,7|7",11
"6|3,7|1,7|2,7|3,7|4",28
"7|5,7|6",10
"7|8,8|7,8|8",20
"6|0,7|0,8|0,8|1,8|2",28
"8|3,8|4",5
"8|5,8|6",9
