1
"0|0,0|1,0|2",11
"0|3,0|4",9
"0|5,0|6,0|7",24
"1|0,1|1,1|2",10
"1|4,1|5",17
"0|8,1|8",3
"2|0,2|1,3|0",22
"1|3,2|3",9
"2|4,2|5,3|5",7
"1|6,2|6",8
"1|7,2|7",11
"2|2,3|2",13
"3|3,3|4",16
"3|6,3|7",3
"2|8,3|8",14
"3|1,4|1",5
"4|5,4|6",9
"4|7,4|8",9
"4|0,5|0,6|0",12
"4|2,5|2",17
"4|3,4|4,5|3",12
"5|5,5|6",9
"5|1,6|1,7|1",13
"5|4,6|4",15
"6|5,6|6,7|6",23
"5|7,6|7",7
"5|8,6|8",13
"6|2,7|2",5
"7|7,7|8,8|8",20
"7|0,8|0",15
"8|1,8|2",12
"6|3,7|3,8|3",10
"7|4,8|4",9
"7|5,8|5",9
"8|6,8|7",4
