10
"0|0,0|1,0|2,0|3,0|4",23
"0|5,0|6",12
"0|7,0|8,1|7",16
"1|2,1|3,2|2",18
"1|4,1|5,2|4",15
"1|0,2|0,3|0,3|1",17
"1|1,2|1",12
"1|6,2|5,2|6,2|7,3|6",15
"1|8,2|8",10
"2|3,3|3",14
"3|7,3|8,4|8,5|7,5|8",30
"4|0,4|1",11
"3|2,4|2,5|2",15
"3|4,4|3,4|4,5|4",22
"3|5,4|5,5|5",12
"4|6,4|7",12
"5|3,6|3",7
"5|0,5|1,6|0,7|0",25
"6|1,7|1",7
"5|6,6|5,6|6,6|7,7|6",23
"6|8,7|8",7
"6|2,7|2,7|3",12
"6|4,7|4,7|5",17
"8|0,8|1,8|2,8|3,8|4",24
"8|5,8|6",16
"7|7,8|7,8|8",13
