2
"0|0,0|1",13
"0|2,0|3",12
"0|4,0|5,0|6",14
"1|0,1|1,2|0",8
"1|2,1|3",15
"1|4,1|5,1|6",20
"0|7,1|7",9
"0|8,1|8",3
"2|1,2|2,3|1",8
"2|3,2|4,3|3",12
"2|5,2|6",14
"2|7,2|8",10
"3|4,4|4,5|4",16
"3|7,3|8",13
"3|0,4|0,4|1",22
"3|2,4|2",13
"4|3,5|2,5|3",17
"3|5,3|6,4|5",11
"4|6,5|6",4
"4|7,4|8,5|8",13
"5|0,5|1",6
"6|0,6|1",12
"6|2,6|3",3
"5|5,6|4,6|5",23
"5|7,6|6,6|7",15
"7|0,8|0",12
"7|1,8|1",14
"7|2,7|3,7|4",18
"7|5,7|6",9
"6|8,7|7,7|8",18
"8|2,8|3,8|4",8
"8|5,8|6",7
"8|7,8|8",13
