3
"6|7,7|6,7|7,8|6,8|7,8|8",32
"4|7,4|8",7
"0|4,1|4",9
"6|8,7|8",10
"3|6,3|7",6
"0|1,0|2",13
"5|0,5|1",7
"2|3,2|4",12
"6|0,7|0,8|0,8|1,8|2",23
"3|0,3|1,4|0,4|1",23
"0|5,0|6",11
"5|4,6|4",11
"1|5,2|5",7
"6|1,7|1,7|2",21
"4|2,4|3",5
"0|7,0|8,1|8",19
"5|7,5|8",17
"1|6,1|7,2|6,2|7",20
"7|3,8|3",6
"3|3,3|4,3|5,4|4,4|5,5|5",34
"0|0,1|0,1|1,1|2,2|0,2|1",23
"5|2,5|3,6|2,6|3",19
"2|8,3|8",5
"7|4,7|5,8|4,8|5",19
"4|6,5|6",12
"0|3,1|3",10
"6|5,6|6",9
"2|2,3|2",15
