6
"0|0,0|1,1|0",17
"0|2,0|3",13
"0|6,0|7",7
"1|1,1|2,2|1",15
"0|4,0|5,1|3,1|4",18
"1|5,1|6",12
"0|8,1|8",3
"2|2,2|3,3|2,3|3",24
"1|7,2|6,2|7,2|8",27
"2|0,3|0",7
"2|4,3|4",9
"2|5,3|5",10
"3|1,4|0,4|1,5|0",14
"4|2,4|3",11
"3|7,4|7",9
"3|8,4|8",12
"5|2,5|3",17
"4|4,4|5,5|4,5|5",18
"5|7,5|8",6
"5|1,6|1",8
"3|6,4|6,5|6,6|3,6|4,6|5,6|6",34
"6|7,6|8,7|6,7|7,7|8,8|6,8|7,8|8",44
"6|0,7|0",15
"6|2,7|1,7|2,8|2",13
"7|3,7|4",10
"8|0,8|1",12
"8|3,8|4",8
"7|5,8|5",12
