2
"0|0,0|1,0|2",9
"0|5,0|6",10
"0|7,0|8,1|8",19
"1|1,1|2",16
"0|3,1|3",5
"0|4,1|4",13
"1|5,1|6,1|7",16
"1|0,2|0,2|1",14
"2|3,3|3",12
"2|4,2|5,2|6",15
"2|7,2|8",9
"2|2,3|2",9
"3|4,4|4,5|4",10
"3|7,3|8",9
"3|0,3|1,4|0",17
"4|1,4|2",8
"4|3,5|2,5|3",16
"3|5,3|6,4|5",17
"4|6,4|7",12
"4|8,5|7,5|8",11
"5|0,5|1",15
"5|6,6|6",11
"6|0,6|1",13
"6|2,6|3,6|4",8
"5|5,6|5",4
"6|7,6|8,7|8",18
"7|1,7|2,7|3",16
"7|4,8|4",12
"7|5,8|5",15
"7|6,7|7",9
"7|0,8|0,8|1",12
"8|2,8|3",11
"8|6,8|7,8|8",14
