7
"0|5,0|6,0|7,1|5",25
"0|0,1|0",13
"0|1,0|2,1|1,1|2",14
"0|3,1|3",7
"0|4,1|4",11
"0|8,1|8",10
"2|1,2|2,3|2",16
"2|3,2|4",11
"2|5,3|5",12
"1|6,1|7,2|6",11
"2|7,2|8",10
"2|0,3|0,3|1",19
"3|6,4|6",7
"4|0,4|1,5|0,5|1",16
"3|3,4|3",5
"3|4,4|4,5|4",18
"4|5,5|5",10
"3|7,3|8,4|7,4|8",23
"4|2,5|2",12
"5|7,5|8,6|8",17
"6|0,6|1",8
"6|2,7|1,7|2",16
"5|3,6|3",13
"6|4,6|5",8
"5|6,6|6,6|7",16
"7|0,8|0",11
"7|4,8|4",8
"7|5,8|5",10
"7|6,7|7,8|6,8|7",24
"7|8,8|8",3
"7|3,8|1,8|2,8|3",21
