5
"4|5,5|5,6|5",12
"1|1,2|1,2|2",13
"7|5,8|1,8|2,8|3,8|4,8|5",30
"2|8,3|8,4|8",20
"0|0,0|1,1|0",13
"5|6,5|7,5|8,6|8",17
"1|5,1|6,1|7,2|6",21
"7|6,8|6",3
"4|2,5|2",8
"0|2,1|2",17
"6|2,7|1,7|2,7|3",22
"2|0,3|0,3|1,3|2",22
"7|8,8|7,8|8",15
"3|6,4|6",9
"0|3,0|4,0|5,0|6,0|7,1|3",28
"6|6,6|7,7|7",24
"2|3,3|3,4|3",15
"4|0,5|0,6|0",11
"1|4,2|4",11
"7|0,8|0",14
"2|5,3|4,3|5,4|4,5|3,5|4,6|3",40
"4|1,5|1,6|1",15
"0|8,1|8",9
"6|4,7|4",4
"2|7,3|7,4|7",12
