6
"0|2,0|3",8
"0|0,0|1,1|0,1|1",11
"1|2,1|3",12
"0|4,1|4",10
"0|5,0|6,1|5,1|6",22
"2|4,2|5",11
"0|7,1|7,2|6,2|7,3|6,3|7",32
"2|0,3|0",13
"2|1,3|1",10
"2|2,2|3,3|2,3|3",22
"3|4,3|5",8
"0|8,1|8,2|8,3|8,4|8",27
"4|0,4|1",13
"4|6,4|7",15
"4|2,5|2",6
"4|3,5|3",12
"4|4,4|5,5|4",13
"5|7,5|8",5
"5|0,5|1,6|0,6|1",21
"5|5,5|6,6|5",11
"6|6,6|7,6|8,7|6,7|7,8|6",27
"6|2,6|3,7|0,7|1,7|2,7|3",35
"6|4,7|4",12
"8|0,8|1,8|2,8|3,8|4",26
"7|5,8|5",5
"7|8,8|7,8|8",18
