3
"0|0,0|1,0|2",14
"0|6,0|7,0|8",16
"0|4,1|4",14
"1|0,2|0",13
"1|1,1|2,2|1",14
"0|3,1|3,2|3",13
"2|4,3|4",15
"0|5,1|5,2|5",11
"1|6,1|7,2|7",20
"1|8,2|8",8
"3|0,3|1",6
"2|2,3|2",10
"2|6,3|6",5
"3|7,3|8",9
"3|3,4|3",8
"3|5,4|5",13
"4|0,5|0",11
"4|1,5|1",10
"4|2,5|2,5|3",14
"4|4,5|4",7
"4|6,5|5,5|6",21
"4|7,5|7",4
"4|8,5|8",14
"6|0,6|1",13
"6|3,6|4,6|5",17
"6|7,6|8",6
"6|2,7|1,7|2",16
"7|3,8|3",16
"7|5,8|5",6
"6|6,7|6,7|7",17
"7|0,8|0",5
"8|1,8|2",11
"7|4,8|4",6
"8|6,8|7",10
"7|8,8|8",12
