6
"0|0,0|1,1|0,1|1",17
"0|6,0|7",10
"0|2,0|3,1|2,1|3",24
"0|4,1|4",6
"0|5,1|5",9
"0|8,1|8",10
"2|0,2|1,3|0,3|1",21
"2|2,2|3,3|2,3|3",18
"1|6,2|6",11
"1|7,2|7,2|8",14
"2|4,3|4",15
"2|5,3|5",11
"4|0,4|1",7
"4|2,4|3",15
"3|6,4|6",7
"3|7,3|8,4|7,4|8",18
"5|0,5|1",12
"5|2,5|3",10
"4|4,4|5,5|4,5|5",15
"5|7,5|8",13
"6|1,6|2",7
"6|3,6|4",7
"5|6,6|5,6|6",17
"6|0,7|0",17
"7|1,7|2,8|2",15
"7|3,7|4,8|3,8|4",18
"6|7,7|6,7|7",19
"6|8,7|8,8|6,8|7,8|8",25
"8|0,8|1",6
"7|5,8|5",11
