4
"0|0,0|1,1|0",9
"0|2,0|3",17
"0|6,0|7,0|8",18
"0|4,1|3,1|4",16
"0|5,1|5",8
"1|6,1|7,1|8",16
"1|1,1|2,2|1",12
"2|4,2|5",9
"2|7,2|8,3|7",16
"2|0,3|0",12
"2|2,2|3,3|2,3|3",16
"2|6,3|5,3|6",15
"3|1,4|0,4|1",14
"3|4,4|3,4|4",9
"4|6,5|6",8
"3|8,4|7,4|8,5|7,5|8,6|8",28
"5|0,5|1",14
"4|2,5|2",13
"4|5,5|4,5|5",20
"5|3,6|2,6|3",11
"6|4,6|5",11
"6|1,7|1,8|1",20
"6|6,6|7,7|6,7|7",28
"6|0,7|0,8|0",14
"7|2,7|3,8|2",12
"7|4,7|5,8|3,8|4,8|5,8|6",30
"7|8,8|7,8|8",9
