3
"0|7,0|8",13
"0|0,0|1,1|0",14
"0|2,1|1,1|2",15
"0|3,0|4,1|3",6
"0|5,1|4,1|5",22
"0|6,1|6,2|6",20
"1|7,1|8",9
"2|1,2|2",11
"2|7,2|8,3|8",6
"2|0,3|0,4|0",20
"2|3,2|4,3|3",17
"2|5,3|4,3|5",16
"3|6,3|7,4|6",20
"3|1,3|2,4|1",8
"4|3,4|4,4|5",16
"4|7,5|6,5|7",16
"4|2,5|1,5|2",16
"5|3,5|4,6|3",20
"5|5,6|4,6|5",13
"4|8,5|8,6|8",12
"5|0,6|0,6|1",17
"6|6,6|7",7
"7|0,7|1",9
"6|2,7|2,8|2",16
"7|3,7|4,8|3",7
"7|5,8|4,8|5",18
"7|6,7|7,8|6",8
"7|8,8|7,8|8",24
"8|0,8|1",9
