5
"0|3,0|4,0|5",11
"0|0,1|0,2|0,3|0",10
"0|1,1|1",11
"0|2,1|2",17
"1|3,1|4",4
"1|6,1|7,2|6,2|7",20
"0|6,0|7,0|8,1|8,2|8",25
"2|1,2|2",8
"1|5,2|5,3|5,3|6,3|7",32
"3|1,3|2",16
"2|3,3|3",11
"4|0,4|1,5|0",15
"4|2,4|3",11
"2|4,3|4,4|4,4|5,4|6",26
"4|7,5|7",16
"3|8,4|8,5|8",12
"5|1,5|2,5|3,6|2,6|3,7|3",26
"5|4,6|4",16
"5|5,5|6",5
"6|5,7|5",8
"6|6,7|6",8
"6|7,6|8",6
"6|0,6|1,7|0,7|1,7|2,8|0,8|1,8|2",40
"7|4,8|3,8|4",16
"7|7,7|8",14
"8|5,8|6,8|7,8|8",21
