3
"0|2,0|3,0|4",16
"0|6,0|7,0|8,1|8",17
"0|1,1|1",5
"0|5,1|4,1|5",21
"1|6,1|7",11
"1|2,2|2",13
"1|3,2|3",6
"2|4,2|5,2|6",13
"2|7,2|8",13
"0|0,1|0,2|0,2|1,3|0",27
"3|1,3|2,4|1,4|2",26
"3|7,3|8,4|8",15
"4|3,5|2,5|3",12
"3|5,3|6,4|5",18
"4|0,5|0,5|1",8
"3|3,3|4,4|4,5|4,5|5",28
"4|6,4|7,5|6,5|7",15
"5|8,6|7,6|8,7|8,8|8",25
"6|0,6|1",16
"6|2,6|3,6|4",11
"6|5,7|5",10
"6|6,7|6",9
"7|1,7|2",8
"7|3,7|4,8|3",17
"7|7,8|7",9
"7|0,8|0,8|1,8|2",20
"8|4,8|5,8|6",16
