2
"7|4,8|3,8|4",22
"5|0,5|1,6|0",10
"2|0,2|1",10
"5|7,6|6,6|7,6|8,7|8,8|8",39
"3|5,3|6,4|5",12
"0|2,0|3",8
"7|6,8|6",10
"5|4,5|5,6|4",11
"1|2,2|2",11
"6|1,7|0,7|1,8|0",26
"3|0,4|0,4|1",16
"0|4,0|5",13
"7|7,8|7",3
"4|6,5|6",11
"1|4,2|4",9
"7|2,7|3",11
"4|2,4|3",3
"0|7,0|8,1|8,2|8",13
"4|8,5|8",14
"1|5,2|5,2|6",13
"6|5,7|5,8|5",8
"3|4,4|4",16
"0|0,0|1,1|0,1|1",17
"5|2,6|2",13
"3|1,3|2",10
"8|1,8|2",9
"3|7,3|8,4|7",12
"0|6,1|6,1|7,2|7",28
"5|3,6|3",10
"1|3,2|3,3|3",17
