n,1,1,1
n,2,1,2
n,3,1,3
n,3,2,1-2
n,4,1,4
n,4,2,1-3
n,5,1,5
n,5,2,1-4|2-3
n,6,1,6
n,6,2,1-5|2-4
n,6,3,1-2-3
n,7,1,7
n,7,2,1-6|2-5|3-4
n,7,3,1-2-4
n,8,1,8
n,8,2,1-7|2-6|3-5
n,8,3,1-2-5|1-3-4
n,9,1,9
n,9,2,8-1|2-7|3-6|4-5
n,9,3,1-2-6|1-3-5|2-3-4
n,10,2,9-1|8-2|3-7|4-6
n,10,3,1-2-7|1-3-6|1-4-5|2-3-5
n,10,4,1-2-3-4
n,11,2,9-2|8-3|4-7|5-6
n,11,3,8-1-2|1-3-7|1-4-6|2-3-6|2-4-5
n,11,4,1-2-3-5
n,12,2,9-3|8-4|5-7
n,12,3,9-2-1|8-1-3|1-4-7|1-5-6|2-3-7|2-4-6|3-4-5
n,12,4,1-2-3-6|1-2-4-5
n,13,2,9-4|8-5|6-7
n,13,3,9-1-3|8-1-4|1-5-7|8-2-3|2-4-7|2-5-6|3-4-6
n,13,4,1-2-3-7|1-2-4-6|1-3-4-5
n,14,2,9-5|8-6
n,14,3,9-1-4|8-1-5|1-6-7|9-2-3|8-2-4|2-5-7|3-4-7|3-5-6
n,14,4,8-1-2-3|1-2-4-7|1-2-5-6|1-3-4-6|2-3-4-5
n,15,2,9-6|8-7
n,15,3,9-1-5|8-1-6|9-2-4|8-2-5|2-6-7|8-3-4|3-5-7|4-5-6
n,15,4,9-2-3-1|8-1-2-4|1-2-5-7|1-3-4-7|1-3-5-6|2-3-4-6
n,15,5,1-2-3-4-5
n,16,2,9-7
n,16,3,9-1-6|8-1-7|9-2-5|8-2-6|9-3-4|8-3-5|3-6-7|4-5-7
n,16,4,9-2-1-4|8-1-2-5|1-2-6-7|8-1-3-4|1-3-5-7|1-4-5-6|2-3-4-7|2-3-5-6
n,16,5,1-2-3-4-6
n,17,2,8-9
n,17,3,9-1-7|9-2-6|8-2-7|9-3-5|8-3-6|8-4-5|4-6-7
n,17,4,9-2-1-5|8-1-2-6|9-1-3-4|8-1-3-5|1-3-6-7|1-4-5-7|8-2-3-4|2-3-5-7|2-4-5-6
n,17,5,1-2-3-4-7|1-2-3-5-6
n,18,3,8-9-1|9-2-7|9-3-6|8-3-7|9-4-5|8-4-6|5-6-7
n,18,4,9-2-1-6|8-1-2-7|9-1-3-5|8-1-3-6|8-1-4-5|1-4-6-7|9-2-3-4|8-2-3-5|2-3-6-7|2-4-5-7|3-4-5-6
n,18,5,8-1-2-3-4|1-2-3-5-7|1-2-4-5-6
n,19,3,8-9-2|9-3-7|9-4-6|8-4-7|8-5-6
n,19,4,9-2-1-7|9-1-3-6|8-1-3-7|9-1-4-5|8-1-4-6|1-5-6-7|9-2-3-5|8-2-3-6|8-2-4-5|2-4-6-7|3-4-5-7
n,19,5,9-2-3-4-1|8-1-2-3-5|1-2-3-6-7|1-2-4-5-7|1-3-4-5-6
n,20,3,8-9-3|9-4-7|9-5-6|8-5-7
n,20,4,8-9-2-1|9-1-3-7|9-1-4-6|8-1-4-7|8-1-5-6|9-2-3-6|8-2-3-7|9-2-4-5|8-2-4-6|2-5-6-7|8-3-4-5|3-4-6-7
n,20,5,9-2-3-1-5|8-1-2-3-6|8-1-2-4-5|1-2-4-6-7|1-3-4-5-7|2-3-4-5-6
n,21,3,8-9-4|9-5-7|8-6-7
n,21,4,8-9-1-3|9-1-4-7|9-1-5-6|8-1-5-7|9-2-3-7|9-2-4-6|8-2-4-7|8-2-5-6|9-3-4-5|8-3-4-6|3-5-6-7
n,21,5,9-2-3-1-6|8-1-2-3-7|9-2-1-4-5|8-1-2-4-6|1-2-5-6-7|8-1-3-4-5|1-3-4-6-7|2-3-4-5-7
n,21,6,1-2-3-4-5-6
n,22,3,8-9-5|9-6-7
n,22,4,8-9-1-4|9-1-5-7|8-1-6-7|8-9-2-3|9-2-4-7|9-2-5-6|8-2-5-7|9-3-4-6|8-3-4-7|8-3-5-6|4-5-6-7
n,22,5,9-2-3-1-7|9-2-1-4-6|8-1-2-4-7|8-1-2-5-6|9-1-3-4-5|8-1-3-4-6|1-3-5-6-7|8-2-3-4-5|2-3-4-6-7
n,22,6,1-2-3-4-5-7
n,23,3,8-9-6
n,23,4,8-9-1-5|9-1-6-7|8-9-2-4|9-2-5-7|8-2-6-7|9-3-4-7|9-3-5-6|8-3-5-7|8-4-5-6
n,23,5,8-9-2-3-1|9-2-1-4-7|9-2-1-5-6|8-1-2-5-7|9-1-3-4-6|8-1-3-4-7|8-1-3-5-6|1-4-5-6-7|9-2-3-4-5|8-2-3-4-6|2-3-5-6-7
n,23,6,1-2-3-4-5-8|1-2-3-4-6-7
n,24,3,8-9-7
n,24,4,8-9-1-6|8-9-2-5|9-2-6-7|8-9-3-4|9-3-5-7|8-3-6-7|9-4-5-6|8-4-5-7
n,24,5,8-9-2-1-4|9-2-1-5-7|8-1-2-6-7|9-1-3-4-7|9-1-3-5-6|8-1-3-5-7|8-1-4-5-6|9-2-3-4-6|8-2-3-4-7|8-2-3-5-6|2-4-5-6-7
n,24,6,1-2-3-4-5-9|1-2-3-4-6-8|1-2-3-5-6-7
n,25,4,8-9-1-7|8-9-2-6|8-9-3-5|9-3-6-7|9-4-5-7|8-4-6-7
n,25,5,8-9-2-1-5|9-2-1-6-7|8-9-1-3-4|9-1-3-5-7|8-1-3-6-7|9-1-4-5-6|8-1-4-5-7|9-2-3-4-7|9-2-3-5-6|8-2-3-5-7|8-2-4-5-6|3-4-5-6-7
n,25,6,1-2-3-4-6-9|1-2-3-4-7-8|1-2-3-5-6-8|1-2-4-5-6-7
n,26,4,8-9-2-7|8-9-3-6|8-9-4-5|9-4-6-7|8-5-6-7
n,26,5,8-9-2-1-6|8-9-1-3-5|9-1-3-6-7|9-1-4-5-7|8-1-4-6-7|8-9-2-3-4|9-2-3-5-7|8-2-3-6-7|9-2-4-5-6|8-2-4-5-7|8-3-4-5-6
n,26,6,1-2-3-4-7-9|1-2-3-5-6-9|1-2-3-5-7-8|1-2-4-5-6-8|1-3-4-5-6-7
n,27,4,8-9-3-7|8-9-4-6|9-5-6-7
n,27,5,8-9-2-1-7|8-9-1-3-6|8-9-1-4-5|9-1-4-6-7|8-1-5-6-7|8-9-2-3-5|9-2-3-6-7|9-2-4-5-7|8-2-4-6-7|9-3-4-5-6|8-3-4-5-7
n,27,6,1-2-3-4-8-9|1-2-3-5-7-9|1-2-3-6-7-8|1-2-4-5-6-9|1-2-4-5-7-8|1-3-4-5-6-8|2-3-4-5-6-7
n,28,4,8-9-4-7|8-9-5-6
n,28,5,8-9-1-3-7|8-9-1-4-6|9-1-5-6-7|8-9-2-3-6|8-9-2-4-5|9-2-4-6-7|8-2-5-6-7|9-3-4-5-7|8-3-4-6-7
n,28,6,1-2-3-5-8-9|1-2-3-6-7-9|1-2-4-5-7-9|1-2-4-6-7-8|1-3-4-5-6-9|1-3-4-5-7-8|2-3-4-5-6-8
n,28,7,1-2-3-4-5-6-7
n,29,4,8-9-5-7
n,29,5,8-9-1-4-7|8-9-1-5-6|8-9-2-3-7|8-9-2-4-6|9-2-5-6-7|8-9-3-4-5|9-3-4-6-7|8-3-5-6-7
n,29,6,1-2-3-6-8-9|1-2-4-5-8-9|1-2-4-6-7-9|1-2-5-6-7-8|1-3-4-5-7-9|1-3-4-6-7-8|2-3-4-5-6-9|2-3-4-5-7-8
n,29,7,1-2-3-4-5-6-8
n,30,4,8-9-6-7
n,30,5,8-9-1-5-7|8-9-2-4-7|8-9-2-5-6|8-9-3-4-6|9-3-5-6-7|8-4-5-6-7
n,30,6,1-2-3-7-8-9|1-2-4-6-8-9|1-2-5-6-7-9|1-3-4-5-8-9|1-3-4-6-7-9|1-3-5-6-7-8|2-3-4-5-7-9|2-3-4-6-7-8
n,30,7,1-2-3-4-5-6-9|1-2-3-4-5-7-8
n,31,5,8-9-1-6-7|8-9-2-5-7|8-9-3-4-7|8-9-3-5-6|9-4-5-6-7
n,31,6,1-2-4-7-8-9|1-2-5-6-8-9|1-3-4-6-8-9|1-3-5-6-7-9|1-4-5-6-7-8|2-3-4-5-8-9|2-3-4-6-7-9|2-3-5-6-7-8
n,31,7,1-2-3-4-5-7-9|1-2-3-4-6-7-8
n,32,5,8-9-2-6-7|8-9-3-5-7|8-9-4-5-6
n,32,6,1-2-5-7-8-9|1-3-4-7-8-9|1-3-5-6-8-9|1-4-5-6-7-9|2-3-4-6-8-9|2-3-5-6-7-9|2-4-5-6-7-8
n,32,7,1-2-3-4-5-8-9|1-2-3-4-6-7-9|1-2-3-5-6-7-8
n,33,5,8-9-3-6-7|8-9-4-5-7
n,33,6,1-2-6-7-8-9|1-3-5-7-8-9|1-4-5-6-8-9|2-3-4-7-8-9|2-3-5-6-8-9|2-4-5-6-7-9|3-4-5-6-7-8
n,33,7,1-2-3-4-6-8-9|1-2-3-5-6-7-9|1-2-4-5-6-7-8
n,34,5,8-9-4-6-7
n,34,6,1-3-6-7-8-9|1-4-5-7-8-9|2-3-5-7-8-9|2-4-5-6-8-9|3-4-5-6-7-9
n,34,7,1-2-3-4-7-8-9|1-2-3-5-6-8-9|1-2-4-5-6-7-9|1-3-4-5-6-7-8
n,35,5,8-9-5-6-7
n,35,6,1-4-6-7-8-9|2-3-6-7-8-9|2-4-5-7-8-9|3-4-5-6-8-9
n,35,7,1-2-3-5-7-8-9|1-2-4-5-6-8-9|1-3-4-5-6-7-9|2-3-4-5-6-7-8
n,36,6,1-5-6-7-8-9|2-4-6-7-8-9|3-4-5-7-8-9
n,36,7,1-2-3-6-7-8-9|1-2-4-5-7-8-9|1-3-4-5-6-8-9|2-3-4-5-6-7-9
n,36,8,1-2-3-4-5-6-7-8
n,37,6,2-5-6-7-8-9|3-4-6-7-8-9
n,37,7,1-2-4-6-7-8-9|1-3-4-5-7-8-9|2-3-4-5-6-8-9
n,37,8,1-2-3-4-5-6-7-9
n,38,6,3-5-6-7-8-9
n,38,7,1-2-5-6-7-8-9|1-3-4-6-7-8-9|2-3-4-5-7-8-9
n,38,8,1-2-3-4-5-6-8-9
n,39,6,4-5-6-7-8-9
n,39,7,1-3-5-6-7-8-9|2-3-4-6-7-8-9
n,39,8,1-2-3-4-5-7-8-9
n,40,7,1-4-5-6-7-8-9|2-3-5-6-7-8-9
n,40,8,1-2-3-4-6-7-8-9
n,41,7,2-4-5-6-7-8-9
n,41,8,1-2-3-5-6-7-8-9
n,42,7,3-4-5-6-7-8-9
n,42,8,1-2-4-5-6-7-8-9
n,43,8,1-3-4-5-6-7-8-9
n,44,8,2-3-4-5-6-7-8-9
n,45,9,1-2-3-4-5-6-7-8-9
